-------------------------------------------------------------------------------
Test set: com.saharat.week5.BubbleSortAppTest
-------------------------------------------------------------------------------
Tests run: 7, Failures: 2, Errors: 0, Skipped: 0, Time elapsed: 0.006 s <<< FAILURE! - in com.saharat.week5.BubbleSortAppTest
shouldBubbleTestCase3(com.saharat.week5.BubbleSortAppTest)  Time elapsed: 0.003 s  <<< FAILURE!
org.junit.internal.ArrayComparisonFailure: arrays first differed at element [0]; expected:<2> but was:<3>
	at com.saharat.week5.BubbleSortAppTest.shouldBubbleTestCase3(BubbleSortAppTest.java:33)

shouldBubbleTestCase4(com.saharat.week5.BubbleSortAppTest)  Time elapsed: 0 s  <<< FAILURE!
org.junit.internal.ArrayComparisonFailure: arrays first differed at element [0]; expected:<2> but was:<3>
	at com.saharat.week5.BubbleSortAppTest.shouldBubbleTestCase4(BubbleSortAppTest.java:42)

